<?xml version="1.0" encoding="UTF-8"?>
<svg version="1.1" xmlns="http://www.w3.org/2000/svg" xmlns:svg="http://www.w3.org/2000/svg"
   xmlns:rdf="http://www.w3.org/1999/02/22-rdf-syntax-ns#" xmlns:cc="http://creativecommons.org/ns#"
   xmlns:inkscape="http://www.inkscape.org/namespaces/inkscape" xmlns:sodipodi="http://sodipodi.sourceforge.net/DTD/sodipodi-0.dtd"
   viewBox="0 0 1760 1344" width="1760" height="1344"
   inkscape:version="1.0" sodipodi:docname="700symbols.svg" id="svg">
  <metadata id="metadata">
    <rdf:RDF><cc:Work><cc:license rdf:resource="http://creativecommons.org/publicdomain/zero/1.0/" /></cc:Work></rdf:RDF>
  </metadata>
  <sodipodi:namedview id="base" units="px" showborder="false" showgrid="true" showgrid="false"
     inkscape:document-units="px" inkscape:current-layer="schematic" inkscape:window-maximized="1">
    <inkscape:grid id="M:16-Grid" type="xygrid" spacingx="1"  spacingy="1"  empspacing="16" enabled="true" snapvisiblegridlinesonly="false" />
    <inkscape:grid id="M:8-Grid"  type="xygrid" spacingx="2"  spacingy="2"  empspacing="8"  enabled="false" />
    <inkscape:grid id="M:4-Grid"  type="xygrid" spacingx="4"  spacingy="4"  empspacing="4"  enabled="false" />
    <inkscape:grid id="M:2-Grid"  type="xygrid" spacingx="8"  spacingy="8"  empspacing="2"  enabled="false" />
    <inkscape:grid id="M:1-Grid"  type="xygrid" spacingx="16" spacingy="16" empspacing="4"  enabled="false" />
    <inkscape:grid id="M:1-Dots"  type="xygrid" spacingx="16" spacingy="16" empspacing="1"  enabled="false" dotted="true" />
  </sodipodi:namedview>
  <defs>
    <linearGradient id="WireStroke">
      <stop offset="0" stop-color="Blue" />
    </linearGradient>
    <linearGradient id="SymbolStroke">
      <stop offset="0" stop-color="Black" />
    </linearGradient>
  </defs>
  <g id="schematic" inkscape:label="Schematic" inkscape:groupmode="layer"
     fill="none" stroke="url(#SymbolStroke)" stroke-width="1" stroke-linecap="round" stroke-linejoin="round">
    <g transform="translate(208,192)"><title>7-PAD</title><path d="m 0,0 12,0" /><rect width="8" height="8" x="12" y="-4" fill="none" /></g>
    <g transform="translate(400,192)"><title>7-term</title><path d="m 0,0 12,0" /><circle r="4" cx="16" /></g>
    <g transform="translate(592,192)"><title>7-short</title><path d="m 0,0 0,16" /></g>
    <g transform="translate(784,192)"><title>7-NL</title><path d="m -6,-2 6,2 -6,2" transform="matrix(0,-1,1,0,0,-16)" /><path d="m 0,0 0,-16" /></g>
    <g transform="translate(976,192)"><title>7-SUB</title><rect width="24" height="2" x="-12" y="0" fill="url(#SymbolStroke)" /><path d="m -12,0 24,0" /></g>
    <g transform="translate(1168,192)"><title>7-SUB1</title><path d="m -6,-2 6,2 -6,2" transform="matrix(0,-1,1,0,0,-16)" /><path d="m 0,0 0,-16" /></g>
    <g transform="translate(1360,192)"><title>7-vsrc</title><path d="m 0,0 0,64" /><circle r="16" cy="32" /></g>
    <g transform="translate(1552,192)"><title>7-isrc</title><path d="m -16,32 32,0" /><g transform="translate(0,32)"><path d="m 0,-32 0,16 m 0,32 0,16" /><circle r="16" /></g></g>
    <g transform="translate(208,320)"><title>7-RB</title><path d="m 0,0 0,6 m 0,36 0,6" /><path d="m -5,6 10,0 0,36 -10,0 0,-36 z" /></g>
    <g transform="translate(400,320)"><title>7-RBM</title><path d="m 0,0 0,6 m 0,36 0,6" /><path d="m -5,6 10,0 0,36 -10,0 0,-36 z" /></g>
    <g transform="translate(592,320)"><title>7-RBV</title><path d="m 0,0 0,6 m 0,36 0,6" /><path d="m -5,6 10,0 0,36 -10,0 0,-36 z" /></g>
    <g transform="translate(784,320)"><title>7-RBMV</title><path d="m 0,0 0,6 m 0,36 0,6" /><path d="m -5,6 10,0 0,36 -10,0 0,-36 z" /></g>
    <g transform="translate(976,320)"><title>7-RBP</title><path d="m 0,0 0,6 m 0,36 0,6" /><path d="m -5,6 10,0 0,36 -10,0 0,-36 z" /><path d="m -12,42 0,-6 24,-24" /></g>
    <g transform="translate(1168,320)"><title>7-REP</title><path d="m 0,0 0,6 m 0,36 0,6" /><path d="m -5,6 10,0 0,36 -10,0 0,-36 z" /><path d="m -12,42 0,-6 24,-24" /><g transform="translate(0,48)"><rect width="24" height="2" x="-12" y="0" fill="url(#SymbolStroke)" /><path d="m -12,0 24,0" /></g></g>
    <g transform="translate(1360,320)"><title>7-res</title><path d="m 0,0 0,6 m 0,36 0,6" /><path d="m -5,6 10,0 0,36 -10,0 0,-36 z" /></g>
    <g transform="translate(1552,320)"><title>7-CU</title><path d="m 0,0 0,4 m 0,24 0,4" /><path d="m -5,4 10,0 0,24 -10,0 0,-24 z" /></g>
    <g transform="translate(208,448)"><title>7-cap</title><path d="m 0,0 0,13 m 0,6 0,13" /><path d="m -12,13 24,0 m -24,6 24,0" /></g>
    <g transform="translate(400,448)"><title>7-ind</title><path d="m 0,0 a 8,8 0 0 1 0,16 a 8,8 0 0 1 0,16 a 8,8 0 0 1 0,16 a 8,8 0 0 1 0,16" /></g>
    <g transform="translate(592,448)"><title>7-dio</title><g transform="translate(0,16)"><path d="m 0,-16 0,32" /><path d="m 8,0 -16,-9 0,18 16,-9 z" transform="matrix(0,1,-1,0,0,0)" /></g><path d="m -9,24 18,0" /></g>
    <g transform="translate(784,448)"><title>7-zener</title><g transform="translate(0,16)"><path d="m 0,-16 0,32" /><path d="m 8,0 -16,-9 0,18 16,-9 z" transform="matrix(0,1,-1,0,0,0)" /></g><path d="m -9,20 0,4 18,0" /></g>
    <g transform="translate(976,448)"><title>7-DP</title><g transform="matrix(-1,0,0,-1,0,16)"><path d="m 0,-16 0,32" /><path d="m 8,0 -16,-9 0,18 16,-9 z" transform="matrix(0,1,-1,0,0,0)" /></g><path d="m -9,8 18,0" /><g transform="translate(0,32)"><rect width="24" height="2" x="-12" y="0" fill="url(#SymbolStroke)" /><path d="m -12,0 24,0" /></g></g>
    <g transform="translate(1168,448)"><title>7-JCAP</title><g transform="matrix(-1,0,0,-1,0,32)"><g transform="translate(0,16)"><path d="m 0,-16 0,32" /><path d="m 8,0 -16,-9 0,18 16,-9 z" transform="matrix(0,1,-1,0,0,0)" /></g><path d="m -9,24 18,0" /></g><g transform="translate(-16,16)"><path d="m 0,-8 0,6 m 0,4 0,6" /><path d="m -6,-2 12,0 m -12,4 12,0" /></g></g>
    <g transform="translate(1360,448)"><title>7-SD</title><g transform="translate(0,16)"><path d="m 0,-16 0,32" /><path d="m 8,0 -16,-9 0,18 16,-9 z" transform="matrix(0,1,-1,0,0,0)" /></g><path d="m -5,20 -4,0 0,4 18,0 0,4 -4,0" /></g>
    <g transform="translate(1552,448)"><title>7-NPN1</title><path d="m -16,0 16,0" /><path d="m 16,-32 0,16 -16,16" /><path d="m 16,-32 0,16 -16,16" transform="matrix(1,0,0,-1,0,0)" /><path d="m 0,-16 0,32" /><path d="m -6,3 6,-3 -3,6" transform="matrix(1,0,0,-1,11,11)" /></g>
    <g transform="translate(208,576)"><title>7-NPN2</title><path d="m 16,-16 -16,16" transform="matrix(1,0,0,-1,0,12)" /><path d="m -16,0 16,0" /><path d="m 16,-32 0,16 -16,16" /><path d="m 16,-32 0,16 -16,16" transform="matrix(1,0,0,-1,0,0)" /><path d="m 0,-16 0,32" /><path d="m -6,3 6,-3 -3,6" transform="matrix(1,0,0,-1,11,11)" /><path d="m -6,3 6,-3 -3,6" transform="matrix(1,0,0,-1,11,23)" /></g>
    <g transform="translate(400,576)"><title>7-NPN3</title><path d="m 16,-16 -16,16" transform="matrix(1,0,0,-1,0,6)" /><path d="m 16,-16 -16,16" transform="matrix(1,0,0,-1,0,12)" /><path d="m -16,0 16,0" /><path d="m 16,-32 0,16 -16,16" /><path d="m 16,-32 0,16 -16,16" transform="matrix(1,0,0,-1,0,0)" /><path d="m 0,-16 0,32" /><path d="m -6,3 6,-3 -3,6" transform="matrix(1,0,0,-1,11,11)" /><path d="m -6,3 6,-3 -3,6" transform="matrix(1,0,0,-1,11,23)" /><path d="m -6,3 6,-3 -3,6" transform="matrix(1,0,0,-1,11,17)" /></g>
    <g transform="translate(592,576)"><title>7-SNPN</title><path d="m -16,0 16,0" /><path d="m 16,-32 0,16 -16,16" /><path d="m 16,-16 -16,16" transform="matrix(1,0,0,-1,0,0)" /><path d="m 16,32 0,-4 -16,-16" /><path d="m 0,-16 0,32" /><path d="m -6,3 6,-3 -3,6" transform="matrix(1,0,0,-1,11,11)" /><path d="m -6,3 6,-3 -3,6" transform="matrix(1,0,0,-1,11,23)" /></g>
    <g transform="translate(784,576)"><title>7-LNPN</title><path d="m -16,0 16,0" /><path d="m 16,-32 0,16 -16,16" /><path d="m 16,-32 0,16 -16,16" transform="matrix(1,0,0,-1,0,0)" /><rect width="2" height="32" x="-1" y="-16" fill="url(#SymbolStroke)" stroke="url(#SymbolStroke)" /><path d="m -6,3 6,-3 -3,6" transform="matrix(1,0,0,-1,11,11)" /></g>
    <g transform="translate(976,576)"><title>7-PNP1</title><path d="m -16,0 16,0" /><path d="m 16,-32 0,16 -16,16" /><path d="m 16,-32 0,16 -16,16" transform="matrix(1,0,0,-1,0,0)" /><path d="m 0,-16 0,32" /><path d="m -6,3 6,-3 -3,6" transform="matrix(-1,0,0,-1,5,-5)" /></g>
    <g transform="translate(1168,576)"><title>7-PNP2</title><path d="m 16,28 -16,-16" /><path d="m -16,0 16,0" /><path d="m 16,-32 0,16 -16,16" /><path d="m 16,-32 0,16 -16,16" transform="matrix(1,0,0,-1,0,0)" /><path d="m 0,-16 0,32" /><path d="m -6,3 6,-3 -3,6" transform="matrix(-1,0,0,-1,5,-5)" /></g>
    <g transform="translate(1360,576)"><title>7-SPNP</title><path d="m -16,0 16,0" /><path d="m 16,-32 0,16 -16,16" /><path d="m 16,-16 -16,16" transform="matrix(1,0,0,-1,0,0)" /><path d="m 16,32 0,-4 -16,-16" /><path d="m 0,-16 0,32" /><path d="m -6,3 6,-3 -3,6" transform="matrix(-1,0,0,-1,5,-5)" /></g>
    <g transform="translate(1552,576)"><title>7-LPNP</title><path d="m -16,0 16,0" /><path d="m 16,-32 0,16 -16,16" /><path d="m 16,-32 0,16 -16,16" transform="matrix(1,0,0,-1,0,0)" /><rect width="2" height="32" x="-1" y="-16" fill="url(#SymbolStroke)" stroke="url(#SymbolStroke)" /><path d="m -6,3 6,-3 -3,6" transform="matrix(-1,0,0,-1,5,-5)" /></g>
    <g transform="translate(208,704)"><title>7-njfet</title><path d="m 16,0 16,0" /><path d="m 0,16 32,0" /><path d="m 0,-16 0,32" transform="translate(16,8)" /><path d="m -6,-2 6,2 -6,2" transform="translate(11,16)" /></g>
    <g transform="translate(400,704)"><title>7-pjfet</title><path d="m 0,0 32,0" /><path d="m 16,16 16,0" /><path d="m 0,-16 0,32" transform="translate(16,8)" /><path d="m -6,-2 6,2 -6,2" transform="matrix(-1,0,0,-1,5,0)" /></g>
    <g transform="translate(592,704)"><title>7-xtal</title><path d="m 0,0 0,8 m 0,16 0,8" /><path d="m -12,8 24,0 m -24,16 24,0" /><path d="m -18,11 36,0 0,10 -36,0 0,-10 z" /></g>
    <g transform="translate(208,832)"><title>7-vsrc-ieee</title><g transform="translate(0,32)"><path d="m 0,-32 0,16 m 0,32 0,16" /><circle r="16" /></g></g>
    <g transform="translate(400,832)"><title>7-isrc-ieee</title><g transform="translate(0,32)"><path d="m 0,-32 0,16 m 0,32 0,16" /><circle r="16" /></g><path d="m 0,22 0,20" /><path d="m -6,-2 6,2 -6,2" transform="matrix(0,1,-1,0,0,42)" /></g>
    <g transform="translate(592,832)"><title>7-RB-ieee</title><path d="m 0,0 0,6 5,3 -10,6 10,6 -10,6 10,6 -10,6 5,3 0,6" /></g>
    <g transform="translate(784,832)"><title>7-RBM-ieee</title><path d="m 0,0 0,6 5,3 -10,6 10,6 -10,6 10,6 -10,6 5,3 0,6" /></g>
    <g transform="translate(976,832)"><title>7-RBV-ieee</title><path d="m 0,0 0,6 5,3 -10,6 10,6 -10,6 10,6 -10,6 5,3 0,6" /></g>
    <g transform="translate(1168,832)"><title>7-RBMV-ieee</title><path d="m 0,0 0,6 5,3 -10,6 10,6 -10,6 10,6 -10,6 5,3 0,6" /></g>
    <g transform="translate(1360,832)"><title>7-RBP-ieee</title><path d="m 0,0 0,6 5,3 -10,6 10,6 -10,6 10,6 -10,6 5,3 0,6" /><path d="m -12,42 0,-6 24,-24" /></g>
    <g transform="translate(1552,832)"><title>7-REP-ieee</title><path d="m 0,0 0,6 5,3 -10,6 10,6 -10,6 10,6 -10,6 5,3 0,6" /><path d="m -12,42 0,-6 24,-24" /><g transform="translate(0,48)"><rect width="24" height="2" x="-12" y="0" fill="url(#SymbolStroke)" /><path d="m -12,0 24,0" /></g></g>
    <g transform="translate(208,960)"><title>7-res-ieee</title><path d="m 0,0 0,6 5,3 -10,6 10,6 -10,6 10,6 -10,6 5,3 0,6" /></g>
    <g transform="translate(400,960)"><title>7-CU-ieee</title><path d="m 0,0 0,4 5,3 -10,6 10,6 -10,6 5,3 0,4" /></g>
    <g transform="translate(592,960)"><title>7-cap-ieee</title><path d="m 0,0 0,13 m 0,6 0,13" /><path d="m -12,13 24,0" /><path d="m 12,21 a 32,32 0 0 0 -24,0" /></g>
    <g transform="translate(784,960)"><title>7-dio-ieee</title><g transform="translate(0,16)"><path d="m 0,-16 0,8 m 0,16 0,8" /><g fill="url(#SymbolStroke)" stroke="url(#SymbolStroke)"><path d="m 8,0 -16,-9 0,18 16,-9 z" transform="matrix(0,1,-1,0,0,0)" /></g></g><path d="m -9,24 18,0" /></g>
    <g transform="translate(976,960)"><title>7-zener-ieee</title><g transform="translate(0,16)"><path d="m 0,-16 0,8 m 0,16 0,8" /><g fill="url(#SymbolStroke)" stroke="url(#SymbolStroke)"><path d="m 8,0 -16,-9 0,18 16,-9 z" transform="matrix(0,1,-1,0,0,0)" /></g></g><path d="m -9,20 0,4 18,0 0,4" /></g>
    <g transform="translate(1168,960)"><title>7-DP-ieee</title><g transform="matrix(-1,0,0,-1,0,16)"><path d="m 0,-16 0,8 m 0,16 0,8" /><g fill="url(#SymbolStroke)" stroke="url(#SymbolStroke)"><path d="m 8,0 -16,-9 0,18 16,-9 z" transform="matrix(0,1,-1,0,0,0)" /></g></g><path d="m -9,8 18,0" /><g transform="translate(0,32)"><rect width="24" height="2" x="-12" y="0" fill="url(#SymbolStroke)" /><path d="m -12,0 24,0" /></g></g>
    <g transform="translate(1360,960)"><title>7-JCAP-ieee</title><g transform="matrix(-1,0,0,-1,0,32)"><g transform="translate(0,16)"><path d="m 0,-16 0,8 m 0,16 0,8" /><g fill="url(#SymbolStroke)" stroke="url(#SymbolStroke)"><path d="m 8,0 -16,-9 0,18 16,-9 z" transform="matrix(0,1,-1,0,0,0)" /></g></g><path d="m -9,24 18,0" /></g><g transform="translate(-16,16)"><path d="m 0,-8 0,6 m 0,4 0,6" /><path d="m -6,-2 12,0" /><path d="m 6,3 a 16,16 0 0 0 -12,0" /></g></g>
    <g transform="translate(1552,960)"><title>7-SD-ieee</title><g transform="translate(0,16)"><path d="m 0,-16 0,8 m 0,16 0,8" /><g fill="url(#SymbolStroke)" stroke="url(#SymbolStroke)"><path d="m 8,0 -16,-9 0,18 16,-9 z" transform="matrix(0,1,-1,0,0,0)" /></g></g><path d="m -5,20 -4,0 0,4 18,0 0,4 -4,0" /></g>
  </g>
  <g id="text" inkscape:label="Text" inkscape:groupmode="layer" xml:space="preserve"
     font-family="Arial" font-weight="bold" font-size="24px" line-height="1" fill="url(#SymbolStroke)">
    <text x="232" y="197.5" font-size="16px">PAD_0</text>
    <text x="790" y="187.5" font-size="16px">NL</text>
    <text x="1174" y="187.5" font-size="16px">SUB1</text>
    <text x="1380" y="221.5" font-size="16px">V6</text>
    <text x="1352" y="205.5" text-anchor="middle" font-size="16px">+</text>
    <text x="1572" y="221.5" font-size="16px">I7</text>
    <text x="1572" y="237.5" font-size="16px">1m</text>
    <text x="1544" y="205.5" text-anchor="middle" font-size="16px">+</text>
    <text x="217" y="341.5" font-size="16px">RB8</text>
    <text x="217" y="357.5" font-size="16px">1</text>
    <text x="409" y="341.5" font-size="16px">RBM9</text>
    <text x="409" y="357.5" font-size="16px">1</text>
    <text x="601" y="341.5" font-size="16px">RBV10</text>
    <text x="601" y="357.5" font-size="16px">1</text>
    <text x="793" y="341.5" font-size="16px">RBMV11</text>
    <text x="793" y="357.5" font-size="16px">1</text>
    <text x="985" y="349.5" font-size="16px">RBP12</text>
    <text x="964" y="331.5" text-anchor="middle" font-size="16px">+</text>
    <text x="1177" y="349.5" font-size="16px">REP13</text>
    <text x="1369" y="341.5" font-size="16px">R14</text>
    <text x="1369" y="357.5" font-size="16px">1</text>
    <text x="1561" y="333.5" font-size="16px">RCU15</text>
    <text x="1561" y="349.5" font-size="16px">1</text>
    <text x="224" y="461.5" font-size="16px">C16</text>
    <text x="224" y="477.5" font-size="16px">1n</text>
    <text x="202" y="460.5" text-anchor="middle" font-size="16px">+</text>
    <text x="412" y="477.5" font-size="16px">L17</text>
    <text x="412" y="493.5" font-size="16px">1u</text>
    <text x="400" y="461.5" text-anchor="middle" font-size="16px">●</text>
    <text x="604" y="461.5" font-size="16px">D18</text>
    <text x="604" y="477.5" font-size="16px">D</text>
    <text x="796" y="461.5" font-size="16px">D19</text>
    <text x="796" y="477.5" font-size="16px">D</text>
    <text x="988" y="469.5" font-size="16px">DP20</text>
    <text x="1180" y="469.5" font-size="16px">JCAP21</text>
    <text x="1146" y="459.5" text-anchor="middle" font-size="10px">+</text>
    <text x="1372" y="469.5" font-size="16px">SD22</text>
    <text x="1568" y="445.5" font-size="16px">Q23</text>
    <text x="224" y="573.5" font-size="16px">Q24</text>
    <text x="416" y="573.5" font-size="16px">Q25</text>
    <text x="608" y="573.5" font-size="16px">Q26</text>
    <text x="800" y="573.5" font-size="16px">Q27</text>
    <text x="800" y="589.5" font-size="16px">24</text>
    <text x="992" y="573.5" font-size="16px">Q28</text>
    <text x="1184" y="573.5" font-size="16px">Q29</text>
    <text x="1376" y="573.5" font-size="16px">Q30</text>
    <text x="1568" y="573.5" font-size="16px">Q31</text>
    <text x="244" y="709.5" font-size="16px">Q32</text>
    <text x="244" y="725.5" font-size="16px">NJF</text>
    <text x="436" y="709.5" font-size="16px">Q33</text>
    <text x="436" y="725.5" font-size="16px">PJF</text>
    <text x="616" y="725.5" font-size="16px">X34</text>
    <text x="228" y="861.5" font-size="16px">V0</text>
    <text x="208" y="861.5" text-anchor="middle" font-size="16px">+</text>
    <text x="420" y="861.5" font-size="16px">I1</text>
    <text x="420" y="877.5" font-size="16px">1m</text>
    <text x="601" y="853.5" font-size="16px">RB2</text>
    <text x="601" y="869.5" font-size="16px">1</text>
    <text x="793" y="853.5" font-size="16px">RBM3</text>
    <text x="793" y="869.5" font-size="16px">1</text>
    <text x="985" y="853.5" font-size="16px">RBV4</text>
    <text x="985" y="869.5" font-size="16px">1</text>
    <text x="1177" y="853.5" font-size="16px">RBMV5</text>
    <text x="1177" y="869.5" font-size="16px">1</text>
    <text x="1369" y="861.5" font-size="16px">RBP6</text>
    <text x="1348" y="843.5" text-anchor="middle" font-size="16px">+</text>
    <text x="1561" y="861.5" font-size="16px">REP7</text>
    <text x="217" y="981.5" font-size="16px">R8</text>
    <text x="217" y="997.5" font-size="16px">1</text>
    <text x="409" y="973.5" font-size="16px">RCU9</text>
    <text x="409" y="989.5" font-size="16px">1</text>
    <text x="608" y="973.5" font-size="16px">C10</text>
    <text x="608" y="989.5" font-size="16px">1n</text>
    <text x="586" y="972.5" text-anchor="middle" font-size="16px">+</text>
    <text x="796" y="973.5" font-size="16px">D11</text>
    <text x="796" y="989.5" font-size="16px">D</text>
    <text x="988" y="973.5" font-size="16px">D12</text>
    <text x="988" y="989.5" font-size="16px">D</text>
    <text x="1180" y="981.5" font-size="16px">DP13</text>
    <text x="1372" y="981.5" font-size="16px">JCAP14</text>
    <text x="1338" y="971.5" text-anchor="middle" font-size="10px">+</text>
    <text x="1564" y="981.5" font-size="16px">SD15</text>
  </g>
  <g id="pins" inkscape:label="Pins" inkscape:groupmode="layer"
     fill="none" stroke="url(#WireStroke)" stroke-width="1" stroke-linecap="round" stroke-linejoin="round">
    <circle r="4" cx="208" cy="192"><title>+</title></circle>
    <circle r="4" cx="400" cy="192"><title>+</title></circle>
    <circle r="4" cx="592" cy="192" />
    <circle r="4" cx="592" cy="208" />
    <circle r="4" cx="784" cy="192"><title>1</title></circle>
    <circle r="4" cx="976" cy="192"><title>1</title></circle>
    <circle r="4" cx="1168" cy="192"><title>1</title></circle>
    <circle r="4" cx="1360" cy="192"><title>+</title></circle>
    <circle r="4" cx="1360" cy="256"><title>-</title></circle>
    <circle r="4" cx="1552" cy="192"><title>+</title></circle>
    <circle r="4" cx="1552" cy="256"><title>-</title></circle>
    <circle r="4" cx="208" cy="320"><title>+</title></circle>
    <circle r="4" cx="208" cy="368"><title>-</title></circle>
    <circle r="4" cx="400" cy="320"><title>+</title></circle>
    <circle r="4" cx="400" cy="368"><title>-</title></circle>
    <circle r="4" cx="592" cy="320"><title>+</title></circle>
    <circle r="4" cx="592" cy="368"><title>-</title></circle>
    <circle r="4" cx="784" cy="320"><title>+</title></circle>
    <circle r="4" cx="784" cy="368"><title>-</title></circle>
    <circle r="4" cx="976" cy="320"><title>+</title></circle>
    <circle r="4" cx="976" cy="368"><title>-</title></circle>
    <circle r="4" cx="1168" cy="320"><title>+</title></circle>
    <circle r="4" cx="1360" cy="320"><title>+</title></circle>
    <circle r="4" cx="1360" cy="368"><title>-</title></circle>
    <circle r="4" cx="1552" cy="320"><title>+</title></circle>
    <circle r="4" cx="1552" cy="352"><title>-</title></circle>
    <circle r="4" cx="208" cy="448"><title>+</title></circle>
    <circle r="4" cx="208" cy="480"><title>-</title></circle>
    <circle r="4" cx="400" cy="448"><title>+</title></circle>
    <circle r="4" cx="400" cy="512"><title>-</title></circle>
    <circle r="4" cx="592" cy="448"><title>A+</title></circle>
    <circle r="4" cx="592" cy="480"><title>K-</title></circle>
    <circle r="4" cx="784" cy="448"><title>A+</title></circle>
    <circle r="4" cx="784" cy="480"><title>K-</title></circle>
    <circle r="4" cx="976" cy="448"><title>K+</title></circle>
    <circle r="4" cx="1168" cy="448"><title>K+</title></circle>
    <circle r="4" cx="1168" cy="480"><title>A-</title></circle>
    <circle r="4" cx="1360" cy="448"><title>A+</title></circle>
    <circle r="4" cx="1360" cy="480"><title>K-</title></circle>
    <circle r="4" cx="1568" cy="480"><title>E</title></circle>
    <circle r="4" cx="1568" cy="416"><title>C</title></circle>
    <circle r="4" cx="1536" cy="448"><title>B</title></circle>
    <circle r="4" cx="224" cy="608"><title>E</title></circle>
    <circle r="4" cx="224" cy="544"><title>C</title></circle>
    <circle r="4" cx="192" cy="576"><title>B</title></circle>
    <circle r="4" cx="416" cy="608"><title>E</title></circle>
    <circle r="4" cx="416" cy="544"><title>C</title></circle>
    <circle r="4" cx="384" cy="576"><title>B</title></circle>
    <circle r="4" cx="608" cy="592"><title>E1</title></circle>
    <circle r="4" cx="608" cy="608"><title>E2</title></circle>
    <circle r="4" cx="608" cy="544"><title>C</title></circle>
    <circle r="4" cx="576" cy="576"><title>B</title></circle>
    <circle r="4" cx="800" cy="608"><title>E</title></circle>
    <circle r="4" cx="800" cy="544"><title>C</title></circle>
    <circle r="4" cx="768" cy="576"><title>B</title></circle>
    <circle r="4" cx="992" cy="608"><title>C</title></circle>
    <circle r="4" cx="992" cy="544"><title>E</title></circle>
    <circle r="4" cx="960" cy="576"><title>B</title></circle>
    <circle r="4" cx="1184" cy="608"><title>C</title></circle>
    <circle r="4" cx="1184" cy="544"><title>E</title></circle>
    <circle r="4" cx="1152" cy="576"><title>B</title></circle>
    <circle r="4" cx="1376" cy="592"><title>C1</title></circle>
    <circle r="4" cx="1376" cy="608"><title>C2</title></circle>
    <circle r="4" cx="1376" cy="544"><title>E</title></circle>
    <circle r="4" cx="1344" cy="576"><title>B</title></circle>
    <circle r="4" cx="1568" cy="608"><title>C</title></circle>
    <circle r="4" cx="1568" cy="544"><title>E</title></circle>
    <circle r="4" cx="1536" cy="576"><title>B</title></circle>
    <circle r="4" cx="208" cy="720"><title>G</title></circle>
    <circle r="4" cx="240" cy="704"><title>D</title></circle>
    <circle r="4" cx="240" cy="720"><title>S</title></circle>
    <circle r="4" cx="400" cy="704"><title>G</title></circle>
    <circle r="4" cx="432" cy="704"><title>S</title></circle>
    <circle r="4" cx="432" cy="720"><title>D</title></circle>
    <circle r="4" cx="592" cy="704"><title>+</title></circle>
    <circle r="4" cx="592" cy="736"><title>-</title></circle>
    <circle r="4" cx="208" cy="832"><title>+</title></circle>
    <circle r="4" cx="208" cy="896"><title>-</title></circle>
    <circle r="4" cx="400" cy="832"><title>+</title></circle>
    <circle r="4" cx="400" cy="896"><title>-</title></circle>
    <circle r="4" cx="592" cy="832"><title>+</title></circle>
    <circle r="4" cx="592" cy="880"><title>-</title></circle>
    <circle r="4" cx="784" cy="832"><title>+</title></circle>
    <circle r="4" cx="784" cy="880"><title>-</title></circle>
    <circle r="4" cx="976" cy="832"><title>+</title></circle>
    <circle r="4" cx="976" cy="880"><title>-</title></circle>
    <circle r="4" cx="1168" cy="832"><title>+</title></circle>
    <circle r="4" cx="1168" cy="880"><title>-</title></circle>
    <circle r="4" cx="1360" cy="832"><title>+</title></circle>
    <circle r="4" cx="1360" cy="880"><title>-</title></circle>
    <circle r="4" cx="1552" cy="832"><title>+</title></circle>
    <circle r="4" cx="208" cy="960"><title>+</title></circle>
    <circle r="4" cx="208" cy="1008"><title>-</title></circle>
    <circle r="4" cx="400" cy="960"><title>+</title></circle>
    <circle r="4" cx="400" cy="992"><title>-</title></circle>
    <circle r="4" cx="592" cy="960"><title>+</title></circle>
    <circle r="4" cx="592" cy="992"><title>-</title></circle>
    <circle r="4" cx="784" cy="960"><title>A+</title></circle>
    <circle r="4" cx="784" cy="992"><title>K-</title></circle>
    <circle r="4" cx="976" cy="960"><title>A+</title></circle>
    <circle r="4" cx="976" cy="992"><title>K-</title></circle>
    <circle r="4" cx="1168" cy="960"><title>K+</title></circle>
    <circle r="4" cx="1360" cy="960"><title>K+</title></circle>
    <circle r="4" cx="1360" cy="992"><title>A-</title></circle>
    <circle r="4" cx="1552" cy="960"><title>A+</title></circle>
    <circle r="4" cx="1552" cy="992"><title>K-</title></circle>
  </g>
</svg>
