Version 4
SHEET 1 0 0
FLAG 496 480 0
FLAG 560 480 0
FLAG 624 480 0
CIRCLE Normal 552 360 568 376 Dot
SYMBOL 7-NPN1 512 432 M0
SYMATTR InstName Q1
SYMBOL 7-NPN1 544 400 R0
SYMATTR InstName Q2
SYMBOL 7-RB 496 304 R0
SYMATTR InstName RB1
SYMATTR Value 20
SYMBOL 7-RB 560 432 R0
SYMATTR InstName RB2
SYMATTR Value 4
SYMBOL 7-SUB 624 480 R0
SYMBOL 7-vsrc 624 368 R0
SYMATTR InstName VP
SYMATTR Value 20
WIRE 496 288 496 304
WIRE 496 288 560 288
WIRE 496 352 496 400
WIRE 496 400 528 400
WIRE 496 464 496 480
WIRE 528 400 528 432
WIRE 560 288 560 368
WIRE 560 288 624 288
WIRE 624 288 624 368
WIRE 624 432 624 480
TEXT 496 512 Left 1 !*.TRAN 500Meg\n*.AC DEC 25 1k 1Meg\n.DC VP 0 20 200m
