Version 4
SHEET 1 0 0
SYMBOL 7-term 688 240 M0
SYMATTR InstName TERM01
SYMATTR 166 VIN
SYMBOL 7-term 688 336 M0
SYMATTR InstName TERM02
SYMATTR 166 VIN
SYMBOL 7-term 736 192 M180
SYMATTR InstName TERM03
SYMATTR 166 Vout
WINDOW 166 56 0 Center 1
FLAG 800 416 0
SYMBOL 7-term 848 192 M0
SYMATTR InstName TERM04
SYMBOL 7-term 896 112 R0
SYMATTR InstName TERM05
SYMATTR 166 VP
SYMBOL 7-isrc 800 352 R0
SYMATTR InstName I1
SYMATTR Value 0
SYMBOL 7-NPN1 720 240 R0
SYMATTR InstName Q1
SYMBOL 7-NPN1 864 240 M0
SYMATTR InstName Q2
SYMBOL 7-RB 736 128 R0
SYMATTR InstName RB1
SYMATTR Value 20
SYMBOL 7-RB 848 128 R0
SYMATTR InstName RB2
SYMATTR Value 20
SYMBOL 7-RB 736 272 R0
SYMATTR InstName RB3
SYMATTR Value 1
SYMBOL 7-RB 848 272 R0
SYMATTR InstName RB4
SYMATTR Value 1
SYMBOL 7-SUB 800 416 R0
WIRE 688 240 704 240
WIRE 688 336 912 336
WIRE 736 112 736 128
WIRE 736 112 848 112
WIRE 736 176 736 192
WIRE 736 192 736 208
WIRE 736 320 800 320
WIRE 800 320 800 352
WIRE 800 320 848 320
WIRE 848 112 848 128
WIRE 848 112 896 112
WIRE 848 176 848 192
WIRE 848 192 848 208
WIRE 880 240 912 240
WIRE 912 240 912 336
TEXT 688 448 Left 1 !.TRAN 1m
