Version 4
SHEET 1 0 0
SYMBOL 7-term 672 192 M0
SYMATTR InstName TERM01
SYMATTR 166 VIN
SYMBOL 7-term 672 288 M0
SYMATTR InstName TERM02
SYMATTR 166 VIN
FLAG 704 416 0
FLAG 752 416 0
FLAG 816 416 0
FLAG 864 416 0
SYMBOL 7-term 896 96 R0
SYMATTR InstName TERM03
SYMATTR 166 VP
SYMBOL 7-term 896 336 M180
SYMATTR InstName TERM04
SYMATTR 166 Vout
SYMBOL 7-isrc 784 112 R0
SYMATTR InstName I1
SYMATTR Value 50u
SYMBOL 7-isrc 704 112 R0
SYMATTR InstName I2
SYMATTR Value 5u
SYMBOL 7-isrc 864 112 R0
SYMATTR InstName I3
SYMATTR Value 5u
SYMBOL 7-SPNP 688 288 R0
SYMATTR InstName Q1
SYMBOL 7-SPNP 736 256 R0
SYMATTR InstName Q2
SYMBOL 7-SPNP 832 256 M0
SYMATTR InstName Q3
SYMBOL 7-SPNP 880 288 M0
SYMATTR InstName Q4
SYMBOL 7-NPN1 768 384 M0
SYMATTR InstName Q5
SYMBOL 7-NPN1 800 384 R0
SYMATTR InstName Q6
SYMBOL 7-SUB 864 416 R0
WIRE 672 192 896 192
WIRE 704 96 704 112
WIRE 704 96 784 96
WIRE 704 176 704 256
WIRE 704 256 720 256
SYMBOL 7-short 704 304 R0
SYMATTR InstName SHORT01
WIRE 704 320 704 416
WIRE 752 208 752 224
WIRE 752 208 784 208
SYMBOL 7-short 752 272 R0
SYMATTR InstName SHORT02
WIRE 752 288 752 352
WIRE 752 352 784 352
WIRE 784 96 784 112
WIRE 784 96 864 96
WIRE 784 176 784 208
WIRE 784 208 816 208
WIRE 784 352 784 384
WIRE 816 208 816 224
SYMBOL 7-short 816 272 M0
SYMATTR InstName SHORT03
WIRE 816 288 816 336
WIRE 816 336 816 352
WIRE 816 336 896 336
WIRE 848 256 864 256
WIRE 864 96 864 112
WIRE 864 96 896 96
WIRE 864 176 864 256
SYMBOL 7-short 864 304 M0
SYMATTR InstName SHORT04
WIRE 864 320 864 416
WIRE 896 192 896 288
TEXT 672 448 Left 1 !.TRAN 1m
