Version 4
SHEET 1 0 0
FLAG 640 304 0
FLAG 704 304 0
SYMBOL 7-term 720 80 R0
SYMATTR InstName TERM01
SYMATTR 166 VP
SYMBOL 7-term 720 192 R0
SYMATTR InstName TERM02
SYMATTR 166 Output
SYMBOL 7-isrc 640 96 R0
SYMATTR InstName I1
SYMATTR Value 100u
SYMBOL 7-NPN1 688 160 R0
SYMATTR InstName Q1
SYMBOL 7-LPNP 688 224 R0
SYMATTR InstName Q2
SYMBOL 7-NPN1 624 272 R0
SYMATTR InstName Q3
SYMBOL 7-SUB 704 304 R0
WIRE 576 272 608 272
WIRE 640 80 640 96
WIRE 640 80 704 80
WIRE 640 160 640 224
WIRE 640 160 672 160
WIRE 640 224 640 240
WIRE 640 224 672 224
WIRE 704 80 704 128
WIRE 704 80 720 80
WIRE 704 192 720 192
WIRE 704 256 704 304
TEXT 576 336 Left 1 !.TRAN 1m
