Version 4
SHEET 1 0 0
FLAG 432 400 0
SYMBOL 7-term 448 320 R0
SYMATTR InstName TERM01
SYMATTR 166 VBE
SYMBOL 7-term 464 240 R0
SYMATTR InstName TERM02
SYMATTR 166 VP
SYMBOL 7-NPN1 416 368 R0
SYMATTR InstName Q1
SYMBOL 7-RB 432 256 R0
SYMATTR InstName RB1
SYMATTR Value 40
SYMBOL 7-SUB 432 400 R0
WIRE 400 336 400 368
WIRE 400 336 432 336
WIRE 432 240 432 256
WIRE 432 240 464 240
WIRE 432 304 432 320
WIRE 432 320 432 336
WIRE 432 320 448 320
TEXT 400 432 Left 1 !*.AC DEC 25 1k 1Meg\n.DC I1 0 20 400m
