Version 4
SHEET 1 0 0
FLAG 736 448 0
FLAG 784 448 0
SYMBOL 7-term 800 368 R0
SYMATTR InstName TERM01
SYMATTR 166 5.9V
SYMBOL 7-term 816 208 R0
SYMATTR InstName TERM02
SYMATTR 166 VP
SYMBOL 7-NPN1 768 416 M180
WINDOW 0 16 8 Left 1
SYMATTR InstName Q1
SYMBOL 7-SPNP 768 336 R0
SYMATTR InstName Q2
SYMBOL 7-NPN1 704 240 R0
SYMATTR InstName Q3
SYMBOL 7-NPN1 704 304 R0
SYMATTR InstName Q4
SYMBOL 7-RB 784 240 R0
SYMATTR InstName RB1
SYMATTR Value 10
SYMBOL 7-REP 720 352 R0
SYMATTR InstName REP1
SYMBOL 7-SUB 784 448 R0
WIRE 688 208 688 240
WIRE 688 208 720 208
WIRE 688 272 688 304
WIRE 688 272 720 272
WIRE 720 208 784 208
WIRE 720 336 720 352
WIRE 720 336 752 336
WIRE 736 416 736 448
WIRE 736 416 752 416
WIRE 784 208 784 240
WIRE 784 208 816 208
WIRE 784 288 784 304
SYMBOL 7-short 784 352 R0
SYMATTR InstName SHORT01
WIRE 784 368 784 384
WIRE 784 368 800 368
TEXT 688 480 Left 1 !.TRAN 1m
