Version 4
SHEET 1 0 0
FLAG 688 480 0
FLAG 800 480 0
SYMBOL 7-NPN1 704 448 M0
SYMATTR InstName Q1
SYMBOL 7-NPN1 784 352 R0
SYMATTR InstName Q2
SYMBOL 7-RB 688 368 R0
SYMATTR InstName RB1
SYMATTR Value 20
SYMBOL 7-SUB 800 480 R0
WIRE 688 304 688 352
WIRE 688 352 688 368
WIRE 688 352 768 352
WIRE 688 416 720 416
WIRE 720 416 720 448
WIRE 800 304 800 320
WIRE 800 384 800 480
TEXT 688 512 Left 1 !.TRAN 1m
