Version 4
SHEET 1 0 0
FLAG 448 720 0
FLAG 496 720 0
FLAG 560 720 0
FLAG 688 720 0
FLAG 720 368 0
FLAG 736 720 0
FLAG 784 720 0
FLAG 912 720 0
FLAG 944 720 0
FLAG 1008 720 0
FLAG 1040 720 0
FLAG 1104 720 0
FLAG 1120 720 0
FLAG 1232 720 0
FLAG 1296 720 0
SYMBOL 7-PAD 1232 704 R0
SYMATTR InstName 1
SYMBOL 7-PAD 560 512 M0
SYMATTR InstName 2
SYMBOL 7-PAD 1232 576 R0
SYMATTR InstName 3
SYMBOL 7-PAD 560 560 M0
SYMATTR InstName 4
SYMBOL 7-PAD 944 400 R0
SYMATTR InstName 5
SYMBOL 7-PAD 560 400 M0
SYMATTR InstName 6
SYMBOL 7-PAD 560 624 M0
SYMATTR InstName 7
SYMBOL 7-PAD 1232 224 R0
SYMATTR InstName 8
SYMBOL 7-cap 496 688 R0
SYMATTR InstName C1
SYMATTR Value 100n
WIRE 1232 496 1248 480
SYMBOL 7-NPN1 576 400 R0
SYMATTR InstName Q1
SYMBOL 7-SPNP 720 560 R0
SYMATTR InstName Q10
SYMBOL 7-SPNP 768 528 R0
SYMATTR InstName Q11
SYMBOL 7-SPNP 880 528 M0
SYMATTR InstName Q12
SYMBOL 7-SPNP 928 560 M0
SYMATTR InstName Q13
SYMBOL 7-NPN1 576 688 M0
SYMATTR InstName Q14
SYMBOL 7-NPN1 992 608 R0
SYMATTR InstName Q15
SYMBOL 7-NPN1 1024 560 R0
SYMATTR InstName Q16
SYMBOL 7-NPN1 1088 528 R0
SYMATTR InstName Q17
SYMBOL 7-NPN1 1056 496 M0
SYMATTR InstName Q18
SYMBOL 7-SPNP 1056 304 R0
SYMATTR InstName Q19
SYMBOL 7-NPN1 608 432 R0
SYMATTR InstName Q2
SYMBOL 7-NPN1 1136 496 R0
SYMATTR InstName Q20
SYMBOL 7-NPN1 1168 288 R0
SYMATTR InstName Q21
SYMBOL 7-LNPN 1216 320 R0
SYMATTR InstName Q22
SYMATTR SpiceLine2 24
SYMBOL 7-SPNP 1184 432 M270
WINDOW 0 16 0 VTop 1
WINDOW 0 16 0 VTop 1
SYMATTR InstName Q23
SYMBOL 7-LNPN 1216 656 R0
SYMATTR InstName Q24
SYMATTR SpiceLine2 24
SYMBOL 7-SPNP 608 512 R0
SYMATTR InstName Q25
SYMBOL 7-NPN1 768 432 M0
SYMATTR InstName Q3
SYMBOL 7-NPN1 800 400 M0
SYMATTR InstName Q4
SYMBOL 7-SPNP 608 304 M0
SYMATTR InstName Q5
SYMBOL 7-SPNP 640 304 R0
SYMATTR InstName Q6
SYMBOL 7-SPNP 736 304 M0
SYMATTR InstName Q7
SYMBOL 7-SPNP 768 304 R0
SYMATTR InstName Q8
SYMBOL 7-SPNP 864 304 M0
SYMATTR InstName Q9
SYMBOL 7-res 496 272 R0
SYMATTR InstName R1
SYMATTR Value 91k
SYMBOL 7-RB 592 224 R0
SYMATTR InstName RB1
SYMATTR Value 6
SYMBOL 7-RB 1056 432 R270
WINDOW 0 5 24 VTop 1
WINDOW 3 -5 24 VBottom 1
SYMATTR InstName RB10
SYMATTR Value 6
SYMBOL 7-RB 1152 224 R0
SYMATTR InstName RB11
SYMATTR Value 9
SYMBOL 7-RB 1184 336 R0
SYMATTR InstName RB12
SYMATTR Value 5
SYMBOL 7-RB 1120 672 R0
SYMATTR InstName RB13
SYMATTR Value 6
SYMBOL 7-RB 688 224 R0
SYMATTR InstName RB2
SYMATTR Value 1
SYMBOL 7-RB 784 224 R0
SYMATTR InstName RB3
SYMATTR Value 6
SYMBOL 7-RB 848 224 R0
SYMATTR InstName RB4
SYMATTR Value 2
SYMBOL 7-RB 688 592 R0
SYMATTR InstName RB5
SYMATTR Value 13
SYMBOL 7-RB 944 240 R0
SYMATTR InstName RB6
SYMATTR Value 7
SYMBOL 7-RB 944 496 R0
SYMATTR InstName RB7
SYMATTR Value 7
SYMBOL 7-RB 944 672 R0
SYMATTR InstName RB8
SYMATTR Value 7
SYMBOL 7-RB 1040 352 R0
SYMATTR InstName RB9
SYMATTR Value 20
SYMBOL 7-RBP 784 672 R0
SYMATTR InstName RBP1
SYMBOL 7-CU 1168 656 R270
WINDOW 0 5 16 VTop 1
WINDOW 3 -5 16 VBottom 1
SYMATTR InstName RCU1
SYMATTR Value 100
SYMBOL 7-CU 848 656 R270
WINDOW 0 5 16 VTop 1
WINDOW 3 -5 16 VBottom 1
SYMATTR InstName RCU2
SYMATTR Value 50
SYMBOL 7-SUB 1040 720 R0
SYMBOL 7-vsrc 448 560 R0
SYMATTR InstName V1
SYMATTR Value Pulse(10 0 0 10u 10u 1m)
WINDOW 3 20 40 Invisible 1
SYMBOL 7-vsrc 1296 432 R0
SYMATTR InstName VP
SYMATTR Value 10
WIRE 448 224 448 512
WIRE 448 224 496 224
WIRE 448 512 560 512
WIRE 448 560 560 560
WIRE 448 624 448 720
WIRE 496 224 496 272
WIRE 496 224 592 224
WIRE 496 320 496 400
WIRE 496 400 496 624
WIRE 496 400 560 400
WIRE 496 624 496 688
WIRE 496 624 560 624
WIRE 560 512 592 512
WIRE 560 560 704 560
WIRE 560 624 560 656
WIRE 592 224 688 224
SYMBOL 7-short 592 320 M0
SYMATTR InstName SHORT01
WIRE 592 336 592 368
WIRE 592 336 624 336
WIRE 592 368 624 368
WIRE 592 656 592 688
WIRE 592 656 624 656
WIRE 624 304 624 336
WIRE 624 368 624 400
WIRE 624 464 688 464
WIRE 624 480 768 480
SYMBOL 7-short 624 528 R0
SYMATTR InstName SHORT02
WIRE 624 544 624 656
WIRE 624 656 848 656
WIRE 656 272 688 272
SYMBOL 7-short 656 320 R0
SYMATTR InstName SHORT03
WIRE 656 336 656 352
WIRE 656 352 1008 352
WIRE 688 224 784 224
WIRE 688 272 720 272
WIRE 688 464 688 592
WIRE 688 464 752 464
WIRE 688 640 688 720
SYMBOL 7-short 720 320 M0
SYMATTR InstName SHORT04
WIRE 720 336 720 368
WIRE 736 528 752 528
SYMBOL 7-short 736 576 R0
SYMATTR InstName SHORT05
WIRE 736 592 736 720
WIRE 752 304 752 336
WIRE 752 336 784 336
WIRE 752 368 752 400
WIRE 752 368 784 368
WIRE 768 464 768 480
WIRE 768 464 1040 464
WIRE 784 224 848 224
SYMBOL 7-short 784 320 R0
SYMATTR InstName SHORT06
WIRE 784 336 784 368
WIRE 784 496 848 496
SYMBOL 7-short 784 544 R0
SYMATTR InstName SHORT07
WIRE 784 560 784 608
WIRE 784 608 784 672
WIRE 784 608 976 608
WIRE 816 400 944 400
WIRE 848 224 944 224
SYMBOL 7-short 848 320 M0
SYMATTR InstName SHORT08
WIRE 848 336 848 496
WIRE 848 496 864 496
SYMBOL 7-short 864 544 M0
SYMATTR InstName SHORT09
WIRE 864 560 864 592
WIRE 864 592 912 592
WIRE 880 304 1040 304
WIRE 880 656 1120 656
WIRE 896 528 912 528
SYMBOL 7-short 912 576 M0
SYMATTR InstName SHORT10
WIRE 912 592 912 720
WIRE 944 224 944 240
WIRE 944 224 1072 224
WIRE 944 288 944 400
WIRE 944 400 944 496
WIRE 944 544 944 560
WIRE 944 560 944 672
WIRE 1008 352 1008 432
WIRE 1008 432 1008 560
WIRE 1008 432 1056 432
WIRE 1008 560 1008 576
WIRE 1008 640 1008 720
WIRE 1040 304 1040 336
WIRE 1040 336 1040 352
WIRE 1040 336 1072 336
WIRE 1040 400 1040 464
WIRE 1040 464 1072 464
WIRE 1040 528 1072 528
WIRE 1040 592 1040 720
WIRE 1072 224 1072 272
WIRE 1072 224 1152 224
WIRE 1072 320 1104 320
WIRE 1072 464 1072 496
WIRE 1104 320 1104 432
WIRE 1104 432 1104 496
WIRE 1104 496 1120 496
WIRE 1104 560 1104 720
WIRE 1120 656 1120 672
WIRE 1120 656 1152 656
WIRE 1152 224 1184 224
WIRE 1152 272 1152 288
WIRE 1152 288 1152 416
WIRE 1152 416 1152 448
SYMBOL 7-short 1152 416 M90
SYMATTR InstName SHORT11
WIRE 1152 448 1152 464
WIRE 1152 448 1184 448
WIRE 1152 528 1152 656
WIRE 1152 656 1168 656
WIRE 1184 224 1184 256
WIRE 1184 224 1232 224
WIRE 1184 320 1184 336
WIRE 1184 320 1200 320
WIRE 1184 384 1232 384
WIRE 1216 416 1232 416
WIRE 1232 224 1232 288
WIRE 1232 224 1296 224
WIRE 1232 352 1232 384
WIRE 1232 384 1232 416
WIRE 1232 416 1232 496
WIRE 1232 496 1232 576
WIRE 1232 576 1232 624
WIRE 1232 688 1232 704
WIRE 1232 704 1232 720
WIRE 1296 224 1296 432
WIRE 1296 496 1296 720
TEXT 448 752 Left 1 !.TRAN 0 20m UIC
