Version 4
SHEET 1 0 0
FLAG 448 624 0
FLAG 496 624 0
FLAG 736 608 0
FLAG 928 608 0
FLAG 992 608 0
SYMBOL 7-cap 848 384 R90
WINDOW 0 -12 16 VBottom 1
WINDOW 3 12 16 VTop 1
SYMATTR InstName C1
SYMATTR Value 50p
SYMBOL 7-ind 816 288 R90
WINDOW 0 0 32 VBottom 1
WINDOW 3 8 32 VTop 1
SYMATTR InstName L1
SYMATTR Value 1u
SYMBOL 7-ind 912 288 R90
WINDOW 0 0 32 VBottom 1
WINDOW 3 8 32 VTop 1
SYMATTR InstName L2
SYMATTR Value 1u
WIRE 736 432 752 416
WIRE 928 432 944 416
SYMBOL 7-SPNP 464 288 R0
SYMATTR InstName Q1
SYMBOL 7-SPNP 464 368 M0
SYMATTR InstName Q2
SYMBOL 7-NPN1 480 512 R0
SYMATTR InstName Q3
SYMBOL 7-NPN1 464 560 M0
SYMATTR InstName Q4
SYMBOL 7-SPNP 656 288 R0
SYMATTR InstName Q5
SYMBOL 7-NPN1 560 560 R0
SYMATTR InstName Q6a
SYMBOL 7-NPN1 752 544 M0
SYMATTR InstName Q7a
SYMBOL 7-NPN1 912 544 R0
SYMATTR InstName Q8a
SYMBOL 7-NPN1 608 560 R0
SYMATTR InstName Q6b
SYMBOL 7-LNPN 768 496 R270
WINDOW 0 16 -8 VTop 1
WINDOW 40 16 24 VTop 1
SYMATTR InstName Q7b
SYMATTR SpiceLine2 24
SYMBOL 7-LNPN 896 496 M270
WINDOW 0 16 -8 VTop 1
WINDOW 40 16 24 VTop 1
SYMATTR InstName Q8b
SYMATTR SpiceLine2 24
SYMBOL 7-res 800 240 R90
WINDOW 0 -5 24 VBottom 1
WINDOW 3 5 24 VTop 1
WINDOW 40 5 24 VTop 1
SYMATTR InstName R1
SYMATTR Value 5k
SYMBOL 7-res 912 240 R90
WINDOW 0 -5 24 VBottom 1
WINDOW 3 5 24 VTop 1
WINDOW 40 5 24 VTop 1
SYMATTR InstName R2
SYMATTR Value 5k
SYMBOL 7-RB 496 576 R0
SYMATTR InstName RB1
SYMATTR Value 40
SYMBOL 7-RB 672 208 R0
SYMATTR InstName RB2
SYMATTR Value 2
SYMBOL 7-REP 512 400 R0
SYMATTR InstName REP1
SYMBOL 7-SUB 928 608 R0
SYMBOL 7-vsrc 992 272 R0
SYMATTR InstName VP
SYMATTR Value 10
WIRE 448 288 448 320
WIRE 448 288 640 288
WIRE 448 320 448 336
WIRE 448 320 480 320
SYMBOL 7-short 448 384 M0
SYMATTR InstName SHORT01
WIRE 448 400 448 512
WIRE 448 512 448 528
WIRE 448 512 464 512
WIRE 448 592 448 624
WIRE 480 208 480 256
WIRE 480 208 576 208
WIRE 480 304 496 304
WIRE 480 368 496 368
WIRE 480 560 496 560
WIRE 496 304 496 368
WIRE 496 368 496 400
WIRE 496 400 496 480
WIRE 496 400 512 400
WIRE 496 544 496 560
WIRE 496 560 496 576
WIRE 496 560 544 560
WIRE 544 560 592 560
WIRE 576 208 576 512
WIRE 576 208 672 208
WIRE 576 512 576 528
WIRE 576 512 624 512
WIRE 576 592 576 624
WIRE 576 624 672 624
WIRE 624 512 624 528
WIRE 624 592 704 592
WIRE 672 208 832 208
WIRE 672 304 704 304
WIRE 672 320 672 544
WIRE 672 544 672 624
WIRE 672 544 768 544
WIRE 704 304 704 592
WIRE 704 592 896 592
WIRE 736 240 736 288
WIRE 736 240 752 240
WIRE 736 288 736 384
WIRE 736 288 752 288
WIRE 736 384 736 432
WIRE 736 384 816 384
WIRE 736 432 736 480
WIRE 736 480 736 512
WIRE 736 576 736 608
WIRE 768 512 800 512
WIRE 768 544 816 544
WIRE 800 240 832 240
WIRE 800 480 800 512
WIRE 800 512 816 512
WIRE 816 288 832 288
WIRE 816 512 848 544
WIRE 816 544 848 512
WIRE 832 208 832 240
WIRE 832 208 992 208
WIRE 832 240 832 288
WIRE 832 240 864 240
WIRE 832 288 848 288
WIRE 848 384 928 384
WIRE 848 512 864 512
WIRE 848 544 896 544
WIRE 864 480 864 512
WIRE 864 512 896 512
WIRE 896 544 896 592
WIRE 912 240 928 240
WIRE 912 288 928 288
WIRE 928 240 928 288
WIRE 928 288 928 384
WIRE 928 384 928 432
WIRE 928 432 928 480
WIRE 928 480 928 512
WIRE 928 576 928 608
WIRE 992 208 992 272
WIRE 992 336 992 608
TEXT 832 328 Center 1 !K12 L1 L2 980m
TEXT 448 656 Left 1 !.TRAN 0 2.5u 0 1n UIC
