Version 4
SHEET 1 880 680
WIRE -64 48 -80 48
WIRE -16 48 -64 48
WIRE 64 48 64 32
WIRE 64 48 16 48
WIRE 144 48 64 48
WIRE -64 112 -64 48
WIRE -16 112 -64 112
WIRE 64 112 64 96
WIRE 64 112 16 112
WIRE 144 112 64 112
WIRE -64 176 -64 112
WIRE -16 176 -64 176
WIRE 64 176 64 160
WIRE 64 176 16 176
WIRE 144 176 64 176
WIRE -64 240 -64 176
WIRE -16 240 -64 240
WIRE 64 240 64 224
WIRE 64 240 16 240
WIRE 144 240 64 240
WIRE 64 304 64 304
FLAG 64 32 +
IOPIN 64 32 BiDir
FLAG 64 304 -
IOPIN 64 304 BiDir
FLAG -80 48 #NW
IOPIN -80 48 BiDir
SYMBOL 7-RBM 64 48 R0
SYMATTR InstName RBM1
SYMATTR Value {a/3}
SYMBOL 7-RBM 64 112 R0
SYMATTR InstName RBM2
SYMATTR Value {a/3}
SYMBOL 7-RBM 64 176 R0
SYMATTR InstName RBM3
SYMATTR Value {a/3}
SYMBOL 7-vsrc 64 240 R0
SYMATTR InstName V1
SYMBOL 7-isrc 144 112 R180
WINDOW 3 20 40 Invisible 1
WINDOW 123 -20 24 Right 1
WINDOW 0 -20 40 Right 1
WINDOW 162 8 8 Center 1
SYMATTR Value I=
SYMATTR Value2 I(V1)/300 * PWR(V(#NW) - (V(+)+V(-))/2, 0.6)
SYMATTR InstName B1
SYMATTR Prefix B
SYMBOL 7-isrc 144 176 R180
WINDOW 3 20 40 Invisible 1
WINDOW 123 -20 24 Right 1
WINDOW 0 -20 40 Right 1
WINDOW 162 8 8 Center 1
SYMATTR Value I=
SYMATTR Value2 I(V1)/300 * PWR(V(#NW) - (V(+)+V(-))/2, 0.6)
SYMATTR InstName B2
SYMATTR Prefix B
SYMBOL 7-isrc 144 240 R180
WINDOW 3 20 40 Invisible 1
WINDOW 123 -20 24 Right 1
WINDOW 0 -20 40 Right 1
WINDOW 162 8 8 Center 1
SYMATTR Value I=
SYMATTR Value2 I(V1)/300 * PWR(V(#NW) - (V(+)+V(-))/2, 0.6)
SYMATTR InstName B3
SYMATTR Prefix B
SYMBOL 7-dio 16 48 R90
WINDOW 0 -9 16 VBottom 1
WINDOW 3 9 16 VTop 1
SYMATTR InstName D1
SYMATTR Value DRSUB {a/2}
SYMBOL 7-dio 16 112 R90
WINDOW 0 -9 16 VBottom 1
WINDOW 3 9 16 VTop 1
SYMATTR InstName D2
SYMATTR Value DRSUB {a}
SYMBOL 7-dio 16 176 R90
WINDOW 0 -9 16 VBottom 1
WINDOW 3 9 16 VTop 1
SYMATTR InstName D3
SYMATTR Value DRSUB {a}
SYMBOL 7-dio 16 240 R90
WINDOW 0 -9 16 VBottom 1
WINDOW 3 9 16 VTop 1
SYMATTR InstName D4
SYMATTR Value DRSUB {a/2}
